#Command: "C:\Program Files (x86)\Microsoft Visual Studio\2019\Community\VC\Tools\MSVC\14.22.27905\bin\HostX86\x86\link.exe" /ERRORREPORT:PROMPT @C:\Users\JoshVal\AppData\Local\Temp\tmpf2e1f68bf27949efa5e8f47b68be1b79.rsp /nologo /incremental:no /fullbuild
^C:\USERS\JOSHVAL\DESKTOP\URL\PROGRAAVPRACTICA\PROGRAAVANZADA2019\TAREA4_JOSHUA_VALEY_1014416\DEBUG\.NETFRAMEWORK,VERSION=V4.5.2.ASSEMBLYATTRIBUTES.OBJ|C:\USERS\JOSHVAL\DESKTOP\URL\PROGRAAVPRACTICA\PROGRAAVANZADA2019\TAREA4_JOSHUA_VALEY_1014416\DEBUG\APP.RES|C:\USERS\JOSHVAL\DESKTOP\URL\PROGRAAVPRACTICA\PROGRAAVANZADA2019\TAREA4_JOSHUA_VALEY_1014416\DEBUG\ASSEMBLYINFO.OBJ|C:\USERS\JOSHVAL\DESKTOP\URL\PROGRAAVPRACTICA\PROGRAAVANZADA2019\TAREA4_JOSHUA_VALEY_1014416\DEBUG\PCH.OBJ|C:\USERS\JOSHVAL\DESKTOP\URL\PROGRAAVPRACTICA\PROGRAAVANZADA2019\TAREA4_JOSHUA_VALEY_1014416\DEBUG\TAREA4_JOSHUA_VALEY_1014416.OBJ
C:\USERS\JOSHVAL\DESKTOP\URL\PROGRAAVPRACTICA\PROGRAAVANZADA2019\TAREA4_JOSHUA_VALEY_1014416\DEBUG\TAREA4_JOSHUA_VALEY_1014416.PDB
